NetCDF-CF Geometry and Timeseries Tools for R • ncdfgeom
…
When on CRAN, the package will be installed with the typical install.packages method.

install.packages("ncdfgeom")

Input Data

We will start with two dataframes: prcp_data and climdiv_poly.

Code to download and prep these data is shown below. More info: doi:10.7289/V5M32STR

prcp_data

#> # A tibble: 1,500 x 345
#>    date       `0101` `0102` `0103` `0104` `0105`
#>    <date>      <dbl>  <dbl>  <dbl>  <dbl>  <dbl>
#>  1 1895-01-01   7.37   8.11   7.77   7.72   7.42
#>  2 1895-02-01   1.41   2.37   2.27   2.72   2.94
#>  3 1895-03-01   7.17   7.5    7.16   7.48   8.29
#>  4 1895-04-01   2.72   3.17   3.07   3.29   4.65
#>  5 1895-05-01   3.06   4.23   2.78   4.61   4.99
#>  6 1895-06-01   4.04   4.68   5.07   4.02   4.09
#>  7 1895-07-01   4.58   4.83   4.09   4.29   4.03
#>  8 1895-08-01   4      5.16   3.81   5.26   4.82
#>  9 1895-09-01   3.41   2.25   1.64   1.52   0.67
#> 10 1895-10-01   2.28   2.29   2.38   2.03   1.93
#> # … with 1,490 more rows, and 339 more variables

climdiv_poly

#> Simple feature collection with 344 features and 2 fields
#> geometry type:  GEOMETRY
#> dimension:      XY
#> bbox:           xmin: -124.7332 ymin: 24.54537 xmax: -66.9501 ymax: 49.38027
#> epsg (SRID):    4269
#> proj4string:    +proj=longlat +ellps=GRS80 +towgs84=0,0,0,0,0,0,0 +no_defs
#> # A tibble: 344 x 3
#>    CLIMDIV CLIMDIV_NAME                   geometry
#>    <chr>   <chr>                    <GEOMETRY [°]>
#>  1 0101    NORTHERN VAL… POLYGON ((-88.05783 35.0…
#>  2 0102    APPALACHIAN … POLYGON ((-86.25819 34.9…
#>  3 0103    UPPER PLAINS  POLYGON ((-88.0181 34.31…
#>  4 0104    EASTERN VALL… POLYGON ((-85.51167 34.5…
#>  5 0105    PIEDMONT PLA… POLYGON ((-85.40764 33.9…
#>  6 0106    PRAIRIE       POLYGON ((-87.97935 32.3…
#>  7 0107    COASTAL PLAIN POLYGON ((-85.00105 32.5…
#>  8 0108    GULF          MULTIPOLYGON (((-87.7888…
#>  9 0201    NORTHWEST     POLYGON ((-114.7559 36.0…
#> 10 0202    NORTHEAST     POLYGON ((-110.5007 37.0…
#> # … with 334 more rows
…
